%YAML 1.1
%TAG !u! tag:unity3d.com,2011:
--- !u!1 &6166426051310832959
GameObject:
  m_ObjectHideFlags: 0
  m_CorrespondingSourceObject: {fileID: 0}
  m_PrefabInstance: {fileID: 0}
  m_PrefabAsset: {fileID: 0}
  serializedVersion: 6
  m_Component:
  - component: {fileID: 6166426051310832958}
  m_Layer: 0
  m_Name: BulletFire
  m_TagString: Untagged
  m_Icon: {fileID: 0}
  m_NavMeshLayer: 0
  m_StaticEditorFlags: 0
  m_IsActive: 1
--- !u!4 &6166426051310832958
Transform:
  m_ObjectHideFlags: 0
  m_CorrespondingSourceObject: {fileID: 0}
  m_PrefabInstance: {fileID: 0}
  m_PrefabAsset: {fileID: 0}
  m_GameObject: {fileID: 6166426051310832959}
  m_LocalRotation: {x: 0, y: 0, z: 0, w: 1}
  m_LocalPosition: {x: 4.9231567, y: 1.2419995, z: -0.28668982}
  m_LocalScale: {x: 1, y: 1, z: 1}
  m_Children:
  - {fileID: 6166426051939244116}
  m_Father: {fileID: 0}
  m_RootOrder: 0
  m_LocalEulerAnglesHint: {x: 0, y: 0, z: 0}
--- !u!1001 &6166426051939107546
PrefabInstance:
  m_ObjectHideFlags: 0
  serializedVersion: 2
  m_Modification:
    m_TransformParent: {fileID: 6166426051310832958}
    m_Modifications:
    - target: {fileID: 100014, guid: a57a6829db3568c4d9bdc37e9e63c017, type: 3}
      propertyPath: m_Name
      value: WFXMR_Explosion Small
      objectReference: {fileID: 0}
    - target: {fileID: 400014, guid: a57a6829db3568c4d9bdc37e9e63c017, type: 3}
      propertyPath: m_LocalPosition.x
      value: 0
      objectReference: {fileID: 0}
    - target: {fileID: 400014, guid: a57a6829db3568c4d9bdc37e9e63c017, type: 3}
      propertyPath: m_LocalPosition.y
      value: 0
      objectReference: {fileID: 0}
    - target: {fileID: 400014, guid: a57a6829db3568c4d9bdc37e9e63c017, type: 3}
      propertyPath: m_LocalPosition.z
      value: 0
      objectReference: {fileID: 0}
    - target: {fileID: 400014, guid: a57a6829db3568c4d9bdc37e9e63c017, type: 3}
      propertyPath: m_LocalRotation.x
      value: 0
      objectReference: {fileID: 0}
    - target: {fileID: 400014, guid: a57a6829db3568c4d9bdc37e9e63c017, type: 3}
      propertyPath: m_LocalRotation.y
      value: 0
      objectReference: {fileID: 0}
    - target: {fileID: 400014, guid: a57a6829db3568c4d9bdc37e9e63c017, type: 3}
      propertyPath: m_LocalRotation.z
      value: 0
      objectReference: {fileID: 0}
    - target: {fileID: 400014, guid: a57a6829db3568c4d9bdc37e9e63c017, type: 3}
      propertyPath: m_LocalRotation.w
      value: 1
      objectReference: {fileID: 0}
    - target: {fileID: 400014, guid: a57a6829db3568c4d9bdc37e9e63c017, type: 3}
      propertyPath: m_RootOrder
      value: 0
      objectReference: {fileID: 0}
    - target: {fileID: 400014, guid: a57a6829db3568c4d9bdc37e9e63c017, type: 3}
      propertyPath: m_LocalEulerAnglesHint.x
      value: 0
      objectReference: {fileID: 0}
    - target: {fileID: 400014, guid: a57a6829db3568c4d9bdc37e9e63c017, type: 3}
      propertyPath: m_LocalEulerAnglesHint.y
      value: 0
      objectReference: {fileID: 0}
    - target: {fileID: 400014, guid: a57a6829db3568c4d9bdc37e9e63c017, type: 3}
      propertyPath: m_LocalEulerAnglesHint.z
      value: 0
      objectReference: {fileID: 0}
    - target: {fileID: 11400000, guid: a57a6829db3568c4d9bdc37e9e63c017, type: 3}
      propertyPath: m_Enabled
      value: 0
      objectReference: {fileID: 0}
    m_RemovedComponents: []
  m_SourcePrefab: {fileID: 100100000, guid: a57a6829db3568c4d9bdc37e9e63c017, type: 3}
--- !u!4 &6166426051939244116 stripped
Transform:
  m_CorrespondingSourceObject: {fileID: 400014, guid: a57a6829db3568c4d9bdc37e9e63c017,
    type: 3}
  m_PrefabInstance: {fileID: 6166426051939107546}
  m_PrefabAsset: {fileID: 0}
